Graphs Development
…
Graphs Development

    Author

             Bruno Caneco 

dt

# A tibble: 228 × 35
   file  subject session begin…¹ end_t…² low_f…³ high_…⁴ durat…⁵ delta…⁶ max_f…⁷
   <chr> <chr>   <fct>     <dbl>   <dbl>   <dbl>   <dbl>   <dbl>   <dbl>   <dbl>
 1 Riet… Riet    1          140.    141.    25.5   1315.   0.714 NA         138.
 2 Riet… Riet    1          203.    205.    19.1   1385.   1.61   0.896     149.
 3 Riet… Riet    1          670.    671.    19.1   1347.   0.822 -0.788     152.
 4 Riet… Riet    1          683.    683.    31.9   1334.   0.315 -0.507     135.
 5 Riet… Riet    1          683.    683.    25.5   1398.   0.384  0.0689    173.
 6 Riet… Riet    1          691.    692.    31.9   1385.   0.920  0.536     149.
 7 Riet… Riet    1          701.    702.    25.5   1360.   0.989  0.0689    149.
 8 Riet… Riet    1          709.    710.    12.8   1411.   1.27   0.281     650.
 9 Riet… Riet    1          717.    718.    12.8   1443.   1.04  -0.231     161.
10 Riet… Riet    1          727.    728.    19.1   1379.   1.29   0.256     167.
# … with 218 more rows, 25 more variables: pfc_avg_slope <dbl>,
#   avg_entropy <dbl>, agg_entropy <dbl>, snr <dbl>, ioi <dbl>, ioi_2 <dbl>,
#   delta_voice_freq <dbl>, delta_voice_inflexion <dbl>,
#   delta_voice_entropy <dbl>, delta_time_1 <dbl>, delta_time_2 <dbl>,
#   delta_time_3 <dbl>, delta_time_4 <dbl>, max_freq_1 <dbl>, max_freq_2 <dbl>,
#   max_freq_3 <dbl>, max_freq_4 <dbl>, pfc_avg_slope_1 <dbl>,
#   pfc_avg_slope_2 <dbl>, pfc_avg_slope_3 <dbl>, pfc_avg_slope_4 <dbl>, …
…
